multi_cycle_MIPS/build/test.vcd
$date
	Sun Jul 07 12:25:23 2024
$end
$version
	Icarus Verilog
$end
$timescale
	1ps
$end
$scope module test $end
$var reg 1 ! clk $end
$var reg 1 " reset $end
$var integer 32 # i [31:0] $end
$scope module mips1 $end
$var wire 1 ! clk $end
$var wire 1 " reset $end
$var wire 1 $ zero $end
$var wire 1 % sb_sel $end
$var wire 5 & rd [4:0] $end
$var wire 1 ' ov $end
$var wire 1 ( lb_sel $end
$var wire 32 ) instruction [31:0] $end
$var wire 32 * imm_extend [31:0] $end
$var wire 32 + dout_DM_in [31:0] $end
$var wire 32 , dout_DM [31:0] $end
$var wire 32 - dout [31:0] $end
$var wire 32 . din [31:0] $end
$var wire 32 / busW [31:0] $end
$var wire 32 0 busB_in [31:0] $end
$var wire 32 1 busB [31:0] $end
$var wire 32 2 busA_in [31:0] $end
$var wire 32 3 busA [31:0] $end
$var wire 2 4 WDsel [1:0] $end
$var wire 32 5 SBout [31:0] $end
$var wire 1 6 PCwr $end
$var wire 32 7 PC_add4 [31:0] $end
$var wire 32 8 PC [31:0] $end
$var wire 2 9 NPCop [1:0] $end
$var wire 32 : NPC [31:0] $end
$var wire 32 ; LBout [31:0] $end
$var wire 1 < IRwr $end
$var wire 1 = GPRwr $end
$var wire 2 > GPRsel [1:0] $end
$var wire 2 ? EXTop [1:0] $end
$var wire 1 @ DMwr $end
$var wire 32 A DM_RD [31:0] $end
$var wire 1 B Bsel $end
$var wire 32 C B [31:0] $end
$var wire 32 D ALUout_in [31:0] $end
$var wire 32 E ALUout [31:0] $end
$var wire 3 F ALUOp [2:0] $end
$scope module A1 $end
$var wire 1 ! clk $end
$var wire 32 G busA_in [31:0] $end
$var reg 32 H busA [31:0] $end
$upscope $end
$scope module ALU1 $end
$var wire 32 I A_in [31:0] $end
$var wire 32 J B_in [31:0] $end
$var wire 6 K opcode [5:0] $end
$var wire 1 $ zero $end
$var wire 1 ' OV $end
$var wire 3 L ALUOp [2:0] $end
$var reg 32 M ALUOut [31:0] $end
$upscope $end
$scope module ALUout1 $end
$var wire 32 N ALUOut_in [31:0] $end
$var wire 1 ! clk $end
$var reg 32 O ALUOut [31:0] $end
$upscope $end
$scope module B1 $end
$var wire 1 ! clk $end
$var wire 32 P busB_in [31:0] $end
$var reg 32 Q busB [31:0] $end
$upscope $end
$scope module DR1 $end
$var wire 1 ! clk $end
$var wire 32 R dout_DM_in [31:0] $end
$var reg 32 S dout_DM [31:0] $end
$upscope $end
$scope module EXT1 $end
$var wire 16 T imm [15:0] $end
$var wire 32 U imm_extend [31:0] $end
$var wire 2 V EXTop [1:0] $end
$upscope $end
$scope module GPR1 $end
$var wire 1 ' OV $end
$var wire 32 W busA [31:0] $end
$var wire 32 X busB [31:0] $end
$var wire 32 Y busW [31:0] $end
$var wire 1 ! clk $end
$var wire 5 Z rd [4:0] $end
$var wire 1 " reset $end
$var wire 5 [ rs [4:0] $end
$var wire 5 \ rt [4:0] $end
$var wire 1 = RegWr $end
$upscope $end
$scope module IR1 $end
$var wire 1 ! clk $end
$var wire 32 ] instruction_in [31:0] $end
$var wire 1 < IRWr $end
$var reg 32 ^ instruction [31:0] $end
$upscope $end
$scope module NPC1 $end
$var wire 32 _ PC_Add4 [31:0] $end
$var wire 26 ` imm [25:0] $end
$var wire 32 a jr_PC [31:0] $end
$var wire 32 b t3 [31:0] $end
$var wire 1 $ zero $end
$var wire 32 c t2 [31:0] $end
$var wire 32 d t1_temp [31:0] $end
$var wire 32 e t1 [31:0] $end
$var wire 32 f t0 [31:0] $end
$var wire 32 g PC [31:0] $end
$var wire 2 h NPCOp [1:0] $end
$var wire 32 i NPC [31:0] $end
$upscope $end
$scope module PC1 $end
$var wire 1 ! clk $end
$var wire 32 j npc [31:0] $end
$var wire 1 " reset $end
$var wire 1 6 PCwr $end
$var reg 32 k pc [31:0] $end
$upscope $end
$scope module controller1 $end
$var wire 1 B Bsel $end
$var wire 1 @ DMWr $end
$var wire 1 = GPRWr $end
$var wire 1 < IRWr $end
$var wire 1 6 PCWr $end
$var wire 1 ! clk $end
$var wire 6 l funct [5:0] $end
$var wire 1 ( lb_sel $end
$var wire 6 m opcode [5:0] $end
$var wire 1 " reset $end
$var wire 1 % sb_sel $end
$var wire 1 n t0 $end
$var wire 1 o t1 $end
$var wire 1 p t2 $end
$var wire 1 q t3 $end
$var wire 1 r t4 $end
$var wire 1 s t5 $end
$var wire 1 t t6 $end
$var wire 1 u t7 $end
$var wire 1 v t8 $end
$var wire 1 w t9 $end
$var wire 1 $ zero $end
$var wire 1 x sw $end
$var wire 1 y subu $end
$var wire 1 z slt $end
$var wire 1 { sb $end
$var wire 1 | ori $end
$var wire 1 } lw $end
$var wire 1 ~ lui $end
$var wire 1 !" lb $end
$var wire 1 "" jr $end
$var wire 1 #" jal $end
$var wire 1 $" j $end
$var wire 1 %" beq $end
$var wire 1 &" addu $end
$var wire 1 '" addiu $end
$var wire 1 (" addi $end
$var wire 2 )" WDsel [1:0] $end
$var wire 2 *" NPCop [1:0] $end
$var wire 2 +" GPRsel [1:0] $end
$var wire 2 ," EXTop [1:0] $end
$var wire 3 -" ALUOp [2:0] $end
$var parameter 4 ." s0 $end
$var parameter 4 /" s1 $end
$var parameter 4 0" s2 $end
$var parameter 4 1" s3 $end
$var parameter 4 2" s4 $end
$var parameter 4 3" s5 $end
$var parameter 4 4" s6 $end
$var parameter 4 5" s7 $end
$var parameter 4 6" s8 $end
$var parameter 4 7" s9 $end
$var reg 4 8" FSM [3:0] $end
$upscope $end
$scope module dm1 $end
$var wire 1 @ DMwr $end
$var wire 10 9" addr [9:0] $end
$var wire 1 ! clk $end
$var wire 32 :" din [31:0] $end
$var wire 32 ;" dout_DM [31:0] $end
$var integer 32 <" i [31:0] $end
$upscope $end
$scope module im1 $end
$var wire 10 =" addr [9:0] $end
$var wire 32 >" dout [31:0] $end
$upscope $end
$scope module lb1 $end
$var wire 32 ?" DMin [31:0] $end
$var wire 32 @" LBout [31:0] $end
$upscope $end
$scope module sb1 $end
$var wire 32 A" busB [31:0] $end
$var wire 32 B" dout_DM [31:0] $end
$var wire 32 C" SBout [31:0] $end
$upscope $end
$upscope $end
$upscope $end
$enddefinitions $end
$comment Show the parameter values. $end
$dumpall
b1001 7"
b1000 6"
b111 5"
b110 4"
b101 3"
b100 2"
b11 1"
b10 0"
b1 /"
b0 ."
$end
#20000
$dumpvars
bx C"
bx B"
bx A"
bx @"
bx ?"
b110100000100000000000000000001 >"
b0 ="
b10000000000 <"
bx ;"
bx :"
bx 9"
b0 8"
b0 -"
b0 ,"
b0 +"
b0 *"
b0 )"
0("
0'"
0&"
0%"
0$"
0#"
0""
0!"
0~
0}
1|
0{
0z
0y
0x
0w
0v
0u
0t
0s
0r
0q
0p
0o
1n
b1101 m
b1 l
b11000000000000 k
b11000000000100 j
b11000000000100 i
b0 h
b11000000000000 g
b11000000000100 f
b11000000000100 e
b100 d
b10000000000000000000100 c
bx b
bx a
b100000000000000000001 `
b11000000000000 _
b110100000100000000000000000001 ^
b110100000100000000000000000001 ]
b10000 \
b0 [
b0 Z
bx Y
b0 X
b0 W
b0 V
b1 U
b1 T
bx S
bx R
bx Q
b0 P
bx O
bx N
bx M
b0 L
b1101 K
bx J
bx I
bx H
b0 G
b0 F
bx E
bx D
bx C
0B
bx A
0@
b0 ?
b0 >
0=
1<
bx ;
b11000000000100 :
b0 9
b11000000000000 8
b11000000000000 7
16
bx 5
b0 4
bx 3
b0 2
bx 1
b0 0
bx /
bx .
b110100000100000000000000000001 -
bx ,
bx +
b1 *
b110100000100000000000000000001 )
0(
0'
b0 &
0%
x$
bx #
0"
0!
$end
#30000
b10000 &
b10000 Z
1B
06
b1 >
b1 +"
b10 F
b10 L
b10 -"
b11000000001000 :
b11000000001000 i
b11000000001000 j
0<
0n
1o
b110100000100010000000000000011 -
b110100000100010000000000000011 ]
b110100000100010000000000000011 >"
b100 ="
b11000000001000 e
b11000000001000 f
b11000000000100 7
b11000000000100 _
b11000000000100 8
b11000000000100 g
b11000000000100 k
b1 8"
0$
b1 D
b1 M
b1 N
bx00000000 5
bx00000000 C"
b0 .
b0 :"
b1 C
b1 J
b0 1
b0 Q
b0 A"
b0 b
b0 3
b0 H
b0 I
b0 a
1!
#40000
0!
#50000
0$
b1 D
b1 M
b1 N
b1 C
b1 J
b10000 &
b10000 Z
1B
06
b1 >
b1 +"
b10 F
b10 L
b10 -"
1t
0<
0n
0p
0o
b110 8"
b0 5
b0 C"
b0 ;
b0 @"
b0 +
b0 R
b0 A
b0 ;"
b0 ?"
b0 B"
b1 9"
b1 /
b1 Y
b1 E
b1 O
1!
#60000
0!
#70000
1=
0t
1u
b111 8"
b0 ,
b0 S
1!
#80000
0!
#90000
1$
16
b0 D
b0 M
b0 N
b0 C
b0 J
b0 &
b0 Z
0B
1<
1n
0=
b0 >
b0 +"
b0 F
b0 L
b0 -"
0u
b1 0
b1 P
b1 X
b0 8"
1!
#100000
0!
#110000
b10001 &
b10001 Z
1B
06
b1 >
b1 +"
b10 F
b10 L
b10 -"
b11000000001100 :
b11000000001100 i
b11000000001100 j
0<
0n
b11 *
b11 U
b1100 d
1o
b11 T
b0 0
b0 P
b0 X
b10001 \
b10001000000000000001100 c
b100010000000000000011 `
b11 l
b110100000010000000000000000001 -
b110100000010000000000000000001 ]
b110100000010000000000000000001 >"
b1000 ="
b110100000100010000000000000011 )
b110100000100010000000000000011 ^
b11000000010100 e
b11000000001100 f
b11000000001000 7
b11000000001000 _
b11000000001000 8
b11000000001000 g
b11000000001000 k
b1 8"
0$
b11 D
b11 M
b11 N
b0 9"
b0 /
b0 Y
b1 5
b1 C"
b1 .
b1 :"
b11 C
b11 J
b0 E
b0 O
b1 1
b1 Q
b1 A"
1!
#120000
0!
#130000
0$
b11 D
b11 M
b11 N
b11 C
b11 J
b10001 &
b10001 Z
1B
06
b1 >
b1 +"
b10 F
b10 L
b10 -"
1t
0<
0n
0p
0o
b110 8"
b0 5
b0 C"
b0 .
b0 :"
b11 9"
b11 /
b11 Y
b0 1
b0 Q
b0 A"
b11 E
b11 O
1!
#140000
0!
#150000
1=
0t
1u
b111 8"
1!
#160000
0!
#170000
1$
16
b0 D
b0 M
b0 N
b0 C
b0 J
b0 &
b0 Z
0B
1<
1n
0=
b0 >
b0 +"
b0 F
b0 L
b0 -"
0u
b11 0
b11 P
b11 X
b0 8"
1!
#180000
0!
#190000
b1000 &
b1000 Z
1B
06
b1 >
b1 +"
b10 F
b10 L
b10 -"
b11000000010000 :
b11000000010000 i
b11000000010000 j
0<
0n
b1 *
b1 U
b100 d
1o
b1 T
b0 0
b0 P
b0 X
b1000 \
b1000000000000000000100 c
b10000000000000000001 `
b1 l
b110100000011001010101110101011 -
b110100000011001010101110101011 ]
b110100000011001010101110101011 >"
b1100 ="
b110100000010000000000000000001 )
b110100000010000000000000000001 ^
b11000000010000 e
b11000000010000 f
b11000000001100 7
b11000000001100 _
b11000000001100 8
b11000000001100 g
b11000000001100 k
b1 8"
0$
b1 D
b1 M
b1 N
b0 9"
b0 /
b0 Y
b11 5
b11 C"
b11 .
b11 :"
b1 C
b1 J
b0 E
b0 O
b11 1
b11 Q
b11 A"
1!
#200000
0!
#210000
0$
b1 D
b1 M
b1 N
b1 C
b1 J
b1000 &
b1000 Z
1B
06
b1 >
b1 +"
b10 F
b10 L
b10 -"
1t
0<
0n
0p
0o
b110 8"
b0 5
b0 C"
b0 .
b0 :"
b1 9"
b1 /
b1 Y
b0 1
b0 Q
b0 A"
b1 E
b1 O
1!
#220000
0!
#230000
1=
0t
1u
b111 8"
1!
#240000
0!
#250000
1$
16
b0 D
b0 M
b0 N
b0 C
b0 J
b0 &
b0 Z
0B
1<
1n
0=
b0 >
b0 +"
b0 F
b0 L
b0 -"
0u
b1 0
b1 P
b1 X
b0 8"
1!
#260000
0!
#270000
1B
06
b1 >
b1 +"
b10 F
b10 L
b10 -"
b1100 &
b1100 Z
b11000000010100 :
b11000000010100 i
b11000000010100 j
0<
0n
b1010101110101011 *
b1010101110101011 U
b11111111111111101010111010101100 d
1o
b1010101110101011 T
b0 0
b0 P
b0 X
b1100 \
b1100101010111010101100 c
b11001010101110101011 `
b101011 l
b111100000011010000000000001010 -
b111100000011010000000000001010 ]
b111100000011010000000000001010 >"
b10000 ="
b110100000011001010101110101011 )
b110100000011001010101110101011 ^
b11111111111111101101111010111100 e
b11000000010100 f
b11000000010000 7
b11000000010000 _
b11000000010000 8
b11000000010000 g
b11000000010000 k
b1 8"
0$
b1010101110101011 D
b1010101110101011 M
b1010101110101011 N
b0 9"
b0 /
b0 Y
b1 5
b1 C"
b1 .
b1 :"
b1010101110101011 C
b1010101110101011 J
b0 E
b0 O
b1 1
b1 Q
b1 A"
1!
#280000
0!
#290000
0$
b1010101110101011 D
b1010101110101011 M
b1010101110101011 N
b1010101110101011 C
b1010101110101011 J
b1100 &
b1100 Z
1B
06
b1 >
b1 +"
b10 F
b10 L
b10 -"
1t
0<
0n
0p
0o
b110 8"
b0 5
b0 C"
b0 .
b0 :"
b1110101011 9"
b1010101110101011 /
b1010101110101011 Y
b0 1
b0 Q
b0 A"
b1010101110101011 E
b1010101110101011 O
1!
#300000
0!
#310000
1=
0t
1u
b111 8"
1!
#320000
0!
#330000
1$
16
b0 D
b0 M
b0 N
b0 C
b0 J
b10101 &
b10101 Z
0B
1<
1n
0=
b0 >
b0 +"
b0 F
b0 L
b0 -"
0u
b1010101110101011 0
b1010101110101011 P
b1010101110101011 X
b0 8"
1!
#340000
0!
#350000
1B
06
b1 >
b1 +"
b10 F
b10 L
b10 -"
b10 ?
b10 V
b10 ,"
0|
1~
b1101 &
b1101 Z
b11000000011000 :
b11000000011000 i
b11000000011000 j
0<
0n
b10100000000000000000 *
b10100000000000000000 U
b101000 d
1o
b1111 K
b1010 T
b0 0
b0 P
b0 X
b1101 \
b1101000000000000101000 c
b11010000000000001010 `
b1010 l
b1111 m
b100000010000000100001 -
b100000010000000100001 ]
b100000010000000100001 >"
b10100 ="
b111100000011010000000000001010 )
b111100000011010000000000001010 ^
b11000000111100 e
b11000000011000 f
b11000000010100 7
b11000000010100 _
b11000000010100 8
b11000000010100 g
b11000000010100 k
b1 8"
0$
b10100000000000000000 D
b10100000000000000000 M
b10100000000000000000 N
b0 9"
b0 /
b0 Y
b10101011 5
b10101011 C"
b1010101110101011 .
b1010101110101011 :"
b10100000000000000000 C
b10100000000000000000 J
b0 E
b0 O
b1010101110101011 1
b1010101110101011 Q
b1010101110101011 A"
1!
#360000
0!
#370000
0$
b1101 &
b1101 Z
b10100000000000000000 D
b10100000000000000000 M
b10100000000000000000 N
b10100000000000000000 C
b10100000000000000000 J
1B
06
b10100000000000000000 *
b10100000000000000000 U
b1 >
b1 +"
b10 ?
b10 V
b10 ,"
b10 F
b10 L
b10 -"
1t
0<
0n
0p
0o
b110 8"
b0 5
b0 C"
b0 .
b0 :"
b10100000000000000000 /
b10100000000000000000 Y
b0 1
b0 Q
b0 A"
b10100000000000000000 E
b10100000000000000000 O
1!
#380000
0!
#390000
1=
0t
1u
b111 8"
1!
#400000
0!
#410000
1$
16
b0 D
b0 M
b0 N
b0 &
b0 Z
b0 C
b0 J
0B
1<
1n
0=
b1010 *
b1010 U
b0 >
b0 +"
b0 ?
b0 V
b0 ,"
b0 F
b0 L
b0 -"
0u
b10100000000000000000 0
b10100000000000000000 P
b10100000000000000000 X
b0 8"
1!
#420000
0!
#430000
06
1&"
0~
b100 &
b100 Z
b11000000011100 :
b11000000011100 i
b11000000011100 j
0<
0n
b10000000100001 *
b10000000100001 U
b1000000010000100 d
1o
b0 K
b10000000100001 T
b1 0
b1 P
b1 X
b10000 \
b10000001000000010000100 c
b100000010000000100001 `
b100001 l
b0 m
b10000010100000100001 -
b10000010100000100001 ]
b10000010100000100001 >"
b11000 ="
b100000010000000100001 )
b100000010000000100001 ^
b1011000010011100 e
b11000000011100 f
b11000000011000 7
b11000000011000 _
b11000000011000 8
b11000000011000 g
b11000000011000 k
b1 8"
0$
b10100000000000000000 D
b10100000000000000000 M
b10100000000000000000 N
b0 /
b0 Y
b10100000000000000000 .
b10100000000000000000 :"
b10100000000000000000 C
b10100000000000000000 J
b0 E
b0 O
b10100000000000000000 1
b10100000000000000000 Q
b10100000000000000000 A"
1!
#440000
0!
#450000
06
1t
0<
0n
0p
0o
b110 8"
b1 D
b1 M
b1 N
b1 5
b1 C"
b1 .
b1 :"
b1 C
b1 J
b10100000000000000000 /
b10100000000000000000 Y
b1 1
b1 Q
b1 A"
b10100000000000000000 E
b10100000000000000000 O
1!
#460000
0!
#470000
1=
0t
1u
b111 8"
b1 9"
b1 /
b1 Y
b1 E
b1 O
1!
#480000
0!
#490000
16
1<
1n
0=
0u
b0 8"
1!
#500000
0!
#510000
06
b101 &
b101 Z
b11000000100000 :
b11000000100000 i
b11000000100000 j
0<
0n
b10100000100001 *
b10100000100001 U
b1010000010000100 d
1o
b10100000100001 T
b1000 \
b1000001010000010000100 c
b10000010100000100001 `
b1100000000000000110000110011 -
b1100000000000000110000110011 ]
b1100000000000000110000110011 >"
b11100 ="
b10000010100000100001 )
b10000010100000100001 ^
b1101000010100000 e
b11000000100000 f
b11000000011100 7
b11000000011100 _
b11000000011100 8
b11000000011100 g
b11000000011100 k
b1 8"
1!
#520000
0!
#530000
06
1t
0<
0n
0p
0o
b110 8"
1!
#540000
0!
#550000
1=
0t
1u
b111 8"
1!
#560000
0!
#570000
16
1<
1n
0=
0u
b0 8"
1!
#580000
0!
#590000
b10 9
b10 h
b10 *"
06
b11000000100000 /
b11000000100000 Y
0&"
b10 4
b10 )"
b10 >
b10 +"
1#"
b11111 &
b11111 Z
b11000011001100 :
b11000011001100 i
b11000011001100 j
0<
0n
b110000110011 *
b110000110011 U
b11000011001100 d
1o
b11 K
b110000110011 T
b0 0
b0 P
b0 X
b0 \
b11000011001100 c
b110000110011 `
b110011 l
b11 m
b101000000000100001 -
b101000000000100001 ]
b101000000000100001 >"
b100000 ="
b1100000000000000110000110011 )
b1100000000000000110000110011 ^
b110000011101100 e
b11000000100100 f
b11000000100000 7
b11000000100000 _
b11000000100000 8
b11000000100000 g
b11000000100000 k
b1 8"
1!
#600000
0!
#610000
16
1=
0o
1w
b1001 8"
1$
b0 D
b0 M
b0 N
b0 5
b0 C"
b0 .
b0 :"
b0 C
b0 J
b0 1
b0 Q
b0 A"
1!
#620000
0!
#630000
b11000011010000 :
b11000011010000 i
b11000011010000 j
b1 &
b1 Z
1<
1n
b0 9
b0 h
b0 *"
16
0=
b0 4
b0 )"
b0 >
b0 +"
b0 /
b0 Y
0v
0w
b100001010001000000100001 -
b100001010001000000100001 ]
b100001010001000000100001 >"
b11001100 ="
b110000110011000 e
b11000011010000 f
b11000011001100 7
b11000011001100 _
b11000011001100 8
b11000011001100 g
b11000011001100 k
b0 8"
b0 9"
b0 E
b0 O
1!
#640000
0!
#650000
06
b0 9
b0 h
b0 *"
1&"
0#"
b10 &
b10 Z
0<
0n
b11000011010100 :
b11000011010100 i
b11000011010100 j
b1000000100001 *
b1000000100001 U
b100000010000100 d
1o
b0 K
b1000000100001 T
b1 0
b1 P
b1 X
b101 \
b1 2
b1 G
b1 W
b100 [
b10000101000100000010000100 c
b100001010001000000100001 `
b100001 l
b0 m
b100001100000000001001000110100 -
b100001100000000001001000110100 ]
b100001100000000001001000110100 >"
b11010000 ="
b100001010001000000100001 )
b100001010001000000100001 ^
b1 8"
b111000101010100 e
b11000011010100 f
b11000011010000 7
b11000011010000 _
b11000011010000 8
b11000011010000 g
b11000011010000 k
1!
#660000
0!
#670000
06
1t
0<
0n
0p
0o
b110 8"
0$
b1 5
b1 C"
b1 .
b1 :"
b1 C
b1 J
b10 D
b10 M
b10 N
b1 1
b1 Q
b1 A"
b1 b
b1 3
b1 H
b1 I
b1 a
1!
#680000
0!
#690000
1=
0t
1u
b111 8"
b10 9"
b10 /
b10 Y
b10 E
b10 O
1!
#700000
0!
#710000
16
1<
1n
0=
0u
b0 8"
1!
#720000
0!
#730000
b1001000110101 D
b1001000110101 M
b1001000110101 N
b0 &
b0 Z
b1001000110100 C
b1001000110100 J
1B
b1 >
b1 +"
06
b1 ?
b1 V
b1 ,"
0&"
1("
0<
0n
b11000011011000 :
b11000011011000 i
b11000011011000 j
b1001000110100 *
b1001000110100 U
b100100011010000 d
1o
b1000 K
b1001000110100 T
b0 0
b0 P
b0 X
b0 \
b1010101110101011 2
b1010101110101011 G
b1010101110101011 W
b1100 [
b110000000000100100011010000 c
b1100000000001001000110100 `
b110100 l
b1000 m
b11111000000000000000001000 -
b11111000000000000000001000 ]
b11111000000000000000001000 >"
b11010100 ="
b100001100000000001001000110100 )
b100001100000000001001000110100 ^
b1 8"
b111100110100100 e
b11000011011000 f
b11000011010100 7
b11000011010100 _
b11000011010100 8
b11000011010100 g
b11000011010100 k
1!
#740000
0!
#750000
b1001000110100 *
b1001000110100 U
b1001000110100 C
b1001000110100 J
b0 &
b0 Z
1B
06
b1 ?
b1 V
b1 ,"
b1 >
b1 +"
1t
0<
0n
0p
0o
b110 8"
b1000110101 9"
b1001000110101 /
b1001000110101 Y
b0 5
b0 C"
b0 .
b0 :"
b1011110111011111 D
b1011110111011111 M
b1011110111011111 N
b1001000110101 E
b1001000110101 O
b0 1
b0 Q
b0 A"
b1010101110101011 b
b1010101110101011 3
b1010101110101011 H
b1010101110101011 I
b1010101110101011 a
1!
#760000
0!
#770000
1=
0t
1u
b111 8"
b111011111 9"
b1011110111011111 /
b1011110111011111 Y
b1011110111011111 E
b1011110111011111 O
1!
#780000
0!
#790000
16
b1010101110101011 D
b1010101110101011 M
b1010101110101011 N
b0 C
b0 J
b10 &
b10 Z
0B
1<
1n
0=
b0 ?
b0 V
b0 ,"
b0 >
b0 +"
0u
b0 8"
b1011110111011111 0
b1011110111011111 P
b1011110111011111 X
1!
#800000
0!
#810000
0B
06
b0 >
b0 +"
b11 9
b11 h
b11 *"
1""
0("
b0 &
b0 Z
0<
0n
b1010101110101011 :
b1010101110101011 i
b1010101110101011 j
b1000 *
b1000 U
b100000 d
1o
b0 K
b1000 T
b11000000100000 2
b11000000100000 G
b11000000100000 W
b11111 [
b1111100000000000000000100000 c
b11111000000000000000001000 `
b1000 l
b0 m
b100000000110100101011001111000 -
b100000000110100101011001111000 ]
b100000000110100101011001111000 >"
b11011000 ="
b11111000000000000000001000 )
b11111000000000000000001000 ^
b1 8"
b11000011111000 e
b11000011011100 f
b11000011011000 7
b11000011011000 _
b11000011011000 8
b11000011011000 g
b11000011011000 k
b10110100110001010 D
b10110100110001010 M
b10110100110001010 N
b11011111 5
b11011111 C"
b1011110111011111 .
b1011110111011111 :"
b1011110111011111 C
b1011110111011111 J
b1110101011 9"
b1010101110101011 /
b1010101110101011 Y
b1011110111011111 1
b1011110111011111 Q
b1011110111011111 A"
b1010101110101011 E
b1010101110101011 O
1!
#820000
0!
#830000
06
b11 9
b11 h
b11 *"
1t
0<
0n
0p
0o
b110 8"
b110001010 9"
b10110100110001010 /
b10110100110001010 Y
b1110110111111111 D
b1110110111111111 M
b1110110111111111 N
b11000000100000 :
b11000000100000 i
b11000000100000 j
b10110100110001010 E
b10110100110001010 O
b11000000100000 b
b11000000100000 3
b11000000100000 H
b11000000100000 I
b11000000100000 a
1!
#840000
0!
#850000
16
0t
1u
b111 8"
b111111111 9"
b1110110111111111 /
b1110110111111111 Y
b1110110111111111 E
b1110110111111111 O
1!
#860000
0!
#870000
b11000000100100 :
b11000000100100 i
b11000000100100 j
1<
1n
b0 9
b0 h
b0 *"
16
0u
b101000000000100001 -
b101000000000100001 ]
b101000000000100001 >"
b100000 ="
b11000001000000 e
b11000000100100 f
b11000000100000 7
b11000000100000 _
b11000000100000 8
b11000000100000 g
b11000000100000 k
b0 8"
1!
#880000
0!
#890000
06
1&"
0""
b10000 &
b10000 Z
0<
0n
b11000000101000 :
b11000000101000 i
b11000000101000 j
b1000000000100001 *
b1000000000100001 U
b11111111111111100000000010000100 d
1o
b1000000000100001 T
b10 0
b10 P
b10 X
b10 \
b1011110111011111 2
b1011110111011111 G
b1011110111011111 W
b0 [
b10100000000010000100 c
b101000000000100001 `
b100001 l
b10001010001000100000100011 -
b10001010001000100000100011 ]
b10001010001000100000100011 >"
b100100 ="
b101000000000100001 )
b101000000000100001 ^
b1 8"
b11111111111111100011000010101000 e
b11000000101000 f
b11000000100100 7
b11000000100100 _
b11000000100100 8
b11000000100100 g
b11000000100100 k
1!
#900000
0!
#910000
06
1t
0<
0n
0p
0o
b110 8"
b10 5
b10 C"
b10 .
b10 :"
b10 C
b10 J
b1011110111100001 D
b1011110111100001 M
b1011110111100001 N
b10 1
b10 Q
b10 A"
b1011110111011111 b
b1011110111011111 3
b1011110111011111 H
b1011110111011111 I
b1011110111011111 a
1!
#920000
0!
#930000
1=
0t
1u
b111 8"
b111100001 9"
b1011110111100001 /
b1011110111100001 Y
b1011110111100001 E
b1011110111100001 O
1!
#940000
0!
#950000
16
1<
1n
0=
0u
b0 8"
b0 2
b0 G
b0 W
1!
#960000
0!
#970000
06
b1 F
b1 L
b1 -"
0&"
1y
b10001 &
b10001 Z
0<
0n
b11000000101100 :
b11000000101100 i
b11000000101100 j
b1000100000100011 *
b1000100000100011 U
b11111111111111100010000010001100 d
1o
b1000100000100011 T
b1 0
b1 P
b1 X
b1000 \
b11 2
b11 G
b11 W
b10001 [
b1000101000100010000010001100 c
b10001010001000100000100011 `
b100011 l
b10010000100011111111111111010 -
b10010000100011111111111111010 ]
b10010000100011111111111111010 >"
b101000 ="
b10001010001000100000100011 )
b10001010001000100000100011 ^
b1 8"
b11111111111111100101000010110100 e
b11000000101100 f
b11000000101000 7
b11000000101000 _
b11000000101000 8
b11000000101000 g
b11000000101000 k
b11111111111111111111111111111110 D
b11111111111111111111111111111110 M
b11111111111111111111111111111110 N
b0 b
b0 3
b0 H
b0 I
b0 a
1!
#980000
0!
#990000
06
b1 F
b1 L
b1 -"
1t
0<
0n
0p
0o
b110 8"
bx0000000000000000 +
bx0000000000000000 R
bx0000000000000000 A
bx0000000000000000 ;"
bx0000000000000000 ?"
bx0000000000000000 B"
b1111111110 9"
b11111111111111111111111111111110 /
b11111111111111111111111111111110 Y
bx0000000000000001 5
bx0000000000000001 C"
b1 .
b1 :"
b1 C
b1 J
b10 D
b10 M
b10 N
b11111111111111111111111111111110 E
b11111111111111111111111111111110 O
b1 1
b1 Q
b1 A"
b11 b
b11 3
b11 H
b11 I
b11 a
1!
#1000000
0!
#1010000
1=
0t
1u
b111 8"
b1 5
b1 C"
b0 +
b0 R
b0 A
b0 ;"
b0 ?"
b0 B"
b10 9"
b10 /
b10 Y
b10 E
b10 O
bx0000000000000000 ,
bx0000000000000000 S
1!
#1020000
0!
#1030000
16
b100 D
b100 M
b100 N
1<
1n
0=
b0 F
b0 L
b0 -"
0u
b0 8"
b10 2
b10 G
b10 W
b0 ,
b0 S
1!
#1040000
0!
#1050000
06
b1 F
b1 L
b1 -"
b1 9
b1 h
b1 *"
0y
1%"
b11111 &
b11111 Z
0<
0n
b11000000110000 :
b11000000110000 i
b11000000110000 j
b1111111111111010 *
b1111111111111010 U
b11111111111111111111111111101000 d
1o
b100 K
b1111111111111010 T
b10 0
b10 P
b10 X
b10001 \
b1011110111100001 2
b1011110111100001 G
b1011110111100001 W
b10000 [
b1000010001111111111111101000 c
b10000100011111111111111010 `
b111010 l
b100 m
b110100000010000000000000000100 -
b110100000010000000000000000100 ]
b110100000010000000000000000100 >"
b101100 ="
b10010000100011111111111111010 )
b10010000100011111111111111010 ^
b1 8"
b11000000010100 e
b11000000110000 f
b11000000101100 7
b11000000101100 _
b11000000101100 8
b11000000101100 g
b11000000101100 k
b1 D
b1 M
b1 N
b100 9"
b100 /
b100 Y
b10 b
b10 3
b10 H
b10 I
b10 a
b100 E
b100 O
1!
#1060000
0!
#1070000
06
b1 F
b1 L
b1 -"
b1 9
b1 h
b1 *"
1v
0<
0n
0o
b1000 8"
b1 9"
b1 /
b1 Y
b10 5
b10 C"
b10 .
b10 :"
b10 C
b10 J
b1011110111011111 D
b1011110111011111 M
b1011110111011111 N
b1 E
b1 O
b10 1
b10 Q
b10 A"
b1011110111100001 b
b1011110111100001 3
b1011110111100001 H
b1011110111100001 I
b1011110111100001 a
1!
#1080000
0!
#1090000
16
b1011110111100011 D
b1011110111100011 M
b1011110111100011 N
b0 F
b0 L
b0 -"
b0 9
b0 h
b0 *"
1<
1n
0v
b0 8"
b111011111 9"
b1011110111011111 /
b1011110111011111 Y
b1011110111011111 E
b1011110111011111 O
1!
#1100000
0!
#1110000
b1011110111100101 D
b1011110111100101 M
b1011110111100101 N
b100 C
b100 J
b1 >
b1 +"
1B
06
b10 F
b10 L
b10 -"
1|
0%"
b1000 &
b1000 Z
b11000000110100 :
b11000000110100 i
b11000000110100 j
0<
0n
b100 *
b100 U
b10000 d
1o
b1101 K
b100 T
b1 0
b1 P
b1 X
b1000 \
b0 2
b0 G
b0 W
b0 [
b1000000000000000010000 c
b10000000000000000100 `
b100 l
b1101 m
b111100000000010111111111111111 -
b111100000000010111111111111111 ]
b111100000000010111111111111111 >"
b110000 ="
b110100000010000000000000000100 )
b110100000010000000000000000100 ^
b11000001000000 e
b11000000110100 f
b11000000110000 7
b11000000110000 _
b11000000110000 8
b11000000110000 g
b11000000110000 k
b1 8"
b111100011 9"
b1011110111100011 /
b1011110111100011 Y
b1011110111100011 E
b1011110111100011 O
1!
#1120000
0!
